{
  "items": [
    {
      "name": "snowflake_connector_11",
      "key": "snowflake_connector_11",
      "description": "Snowflake connector 11",
      "connection_type": "snowflake",
      "access": "write",
      "created_at": "2022-12-23T15:48:25.163340+00:00",
      "updated_at": "2022-12-23T15:48:25.177787+00:00",
      "disabled": false,
      "last_test_timestamp": "2022-12-23T15:48:25.206745+00:00",
      "last_test_succeeded": true,
      "saas_config": null,
      "secrets": null,
      "authorized": false,
      "enabled_actions": null
    },
    {
      "name": "postgres_connector_11",
      "key": "postgres_connector_11",
      "description": "PostgreSQL connector 11",
      "connection_type": "postgres",
      "access": "write",
      "created_at": "2022-12-23T15:49:25.062083+00:00",
      "updated_at": "2022-12-23T15:49:25.087398+00:00",
      "disabled": false,
      "last_test_timestamp": "2022-12-23T15:49:25.098056+00:00",
      "last_test_succeeded": true,
      "saas_config": null,
      "secrets": null,
      "authorized": false,
      "enabled_actions": null
    },
    {
      "name": "mysql_connector_11",
      "key": "mysql_connector_11",
      "description": "MySQL connector 11",
      "connection_type": "mysql",
      "access": "write",
      "created_at": "2022-12-23T15:50:25.163340+00:00",
      "updated_at": "2022-12-23T15:50:25.177787+00:00",
      "disabled": false,
      "last_test_timestamp": "2022-12-23T15:50:25.206745+00:00",
      "last_test_succeeded": true,
      "saas_config": null,
      "secrets": null,
      "authorized": false,
      "enabled_actions": null
    },
    {
      "name": "s3_connector_11",
      "key": "s3_connector_11",
      "description": "S3 connector 11",
      "connection_type": "s3",
      "access": "write",
      "created_at": "2022-12-23T15:51:25.163340+00:00",
      "updated_at": "2022-12-23T15:51:25.177787+00:00",
      "disabled": false,
      "last_test_timestamp": "2022-12-23T15:51:25.206745+00:00",
      "last_test_succeeded": true,
      "saas_config": null,
      "secrets": null,
      "authorized": false,
      "enabled_actions": null
    },
    {
      "name": "bigquery_connector_11",
      "key": "bigquery_connector_11",
      "description": "BigQuery connector 11",
      "connection_type": "bigquery",
      "access": "write",
      "created_at": "2022-12-23T15:52:25.163340+00:00",
      "updated_at": "2022-12-23T15:52:25.177787+00:00",
      "disabled": false,
      "last_test_timestamp": "2022-12-23T15:52:25.206745+00:00",
      "last_test_succeeded": true,
      "saas_config": null,
      "secrets": null,
      "authorized": false,
      "enabled_actions": null
    },
    {
      "name": "snowflake_connector_12",
      "key": "snowflake_connector_12",
      "description": "Snowflake connector 12",
      "connection_type": "snowflake",
      "access": "write",
      "created_at": "2022-12-23T15:53:25.163340+00:00",
      "updated_at": "2022-12-23T15:53:25.177787+00:00",
      "disabled": false,
      "last_test_timestamp": "2022-12-23T15:53:25.206745+00:00",
      "last_test_succeeded": true,
      "saas_config": null,
      "secrets": null,
      "authorized": false,
      "enabled_actions": null
    },
    {
      "name": "postgres_connector_12",
      "key": "postgres_connector_12",
      "description": "PostgreSQL connector 12",
      "connection_type": "postgres",
      "access": "write",
      "created_at": "2022-12-23T15:54:25.062083+00:00",
      "updated_at": "2022-12-23T15:54:25.087398+00:00",
      "disabled": false,
      "last_test_timestamp": "2022-12-23T15:54:25.098056+00:00",
      "last_test_succeeded": true,
      "saas_config": null,
      "secrets": null,
      "authorized": false,
      "enabled_actions": null
    },
    {
      "name": "mysql_connector_12",
      "key": "mysql_connector_12",
      "description": "MySQL connector 12",
      "connection_type": "mysql",
      "access": "write",
      "created_at": "2022-12-23T15:55:25.163340+00:00",
      "updated_at": "2022-12-23T15:55:25.177787+00:00",
      "disabled": false,
      "last_test_timestamp": "2022-12-23T15:55:25.206745+00:00",
      "last_test_succeeded": true,
      "saas_config": null,
      "secrets": null,
      "authorized": false,
      "enabled_actions": null
    },
    {
      "name": "s3_connector_12",
      "key": "s3_connector_12",
      "description": "S3 connector 12",
      "connection_type": "s3",
      "access": "write",
      "created_at": "2022-12-23T15:56:25.163340+00:00",
      "updated_at": "2022-12-23T15:56:25.177787+00:00",
      "disabled": false,
      "last_test_timestamp": "2022-12-23T15:56:25.206745+00:00",
      "last_test_succeeded": true,
      "saas_config": null,
      "secrets": null,
      "authorized": false,
      "enabled_actions": null
    },
    {
      "name": "bigquery_connector_12",
      "key": "bigquery_connector_12",
      "description": "BigQuery connector 12",
      "connection_type": "bigquery",
      "access": "write",
      "created_at": "2022-12-23T15:57:25.163340+00:00",
      "updated_at": "2022-12-23T15:57:25.177787+00:00",
      "disabled": false,
      "last_test_timestamp": "2022-12-23T15:57:25.206745+00:00",
      "last_test_succeeded": true,
      "saas_config": null,
      "secrets": null,
      "authorized": false,
      "enabled_actions": null
    },
    {
      "name": "snowflake_connector_13",
      "key": "snowflake_connector_13",
      "description": "Snowflake connector 13",
      "connection_type": "snowflake",
      "access": "write",
      "created_at": "2022-12-23T15:58:25.163340+00:00",
      "updated_at": "2022-12-23T15:58:25.177787+00:00",
      "disabled": false,
      "last_test_timestamp": "2022-12-23T15:58:25.206745+00:00",
      "last_test_succeeded": true,
      "saas_config": null,
      "secrets": null,
      "authorized": false,
      "enabled_actions": null
    },
    {
      "name": "postgres_connector_13",
      "key": "postgres_connector_13",
      "description": "PostgreSQL connector 13",
      "connection_type": "postgres",
      "access": "write",
      "created_at": "2022-12-23T15:59:25.062083+00:00",
      "updated_at": "2022-12-23T15:59:25.087398+00:00",
      "disabled": false,
      "last_test_timestamp": "2022-12-23T15:59:25.098056+00:00",
      "last_test_succeeded": true,
      "saas_config": null,
      "secrets": null,
      "authorized": false,
      "enabled_actions": null
    },
    {
      "name": "mysql_connector_13",
      "key": "mysql_connector_13",
      "description": "MySQL connector 13",
      "connection_type": "mysql",
      "access": "write",
      "created_at": "2022-12-23T16:00:25.163340+00:00",
      "updated_at": "2022-12-23T16:00:25.177787+00:00",
      "disabled": false,
      "last_test_timestamp": "2022-12-23T16:00:25.206745+00:00",
      "last_test_succeeded": true,
      "saas_config": null,
      "secrets": null,
      "authorized": false,
      "enabled_actions": null
    },
    {
      "name": "s3_connector_13",
      "key": "s3_connector_13",
      "description": "S3 connector 13",
      "connection_type": "s3",
      "access": "write",
      "created_at": "2022-12-23T16:01:25.163340+00:00",
      "updated_at": "2022-12-23T16:01:25.177787+00:00",
      "disabled": false,
      "last_test_timestamp": "2022-12-23T16:01:25.206745+00:00",
      "last_test_succeeded": true,
      "saas_config": null,
      "secrets": null,
      "authorized": false,
      "enabled_actions": null
    },
    {
      "name": "bigquery_connector_13",
      "key": "bigquery_connector_13",
      "description": "BigQuery connector 13",
      "connection_type": "bigquery",
      "access": "write",
      "created_at": "2022-12-23T16:02:25.163340+00:00",
      "updated_at": "2022-12-23T16:02:25.177787+00:00",
      "disabled": false,
      "last_test_timestamp": "2022-12-23T16:02:25.206745+00:00",
      "last_test_succeeded": true,
      "saas_config": null,
      "secrets": null,
      "authorized": false,
      "enabled_actions": null
    },
    {
      "name": "snowflake_connector_14",
      "key": "snowflake_connector_14",
      "description": "Snowflake connector 14",
      "connection_type": "snowflake",
      "access": "write",
      "created_at": "2022-12-23T16:03:25.163340+00:00",
      "updated_at": "2022-12-23T16:03:25.177787+00:00",
      "disabled": false,
      "last_test_timestamp": "2022-12-23T16:03:25.206745+00:00",
      "last_test_succeeded": true,
      "saas_config": null,
      "secrets": null,
      "authorized": false,
      "enabled_actions": null
    },
    {
      "name": "postgres_connector_14",
      "key": "postgres_connector_14",
      "description": "PostgreSQL connector 14",
      "connection_type": "postgres",
      "access": "write",
      "created_at": "2022-12-23T16:04:25.062083+00:00",
      "updated_at": "2022-12-23T16:04:25.087398+00:00",
      "disabled": false,
      "last_test_timestamp": "2022-12-23T16:04:25.098056+00:00",
      "last_test_succeeded": true,
      "saas_config": null,
      "secrets": null,
      "authorized": false,
      "enabled_actions": null
    },
    {
      "name": "mysql_connector_14",
      "key": "mysql_connector_14",
      "description": "MySQL connector 14",
      "connection_type": "mysql",
      "access": "write",
      "created_at": "2022-12-23T16:05:25.163340+00:00",
      "updated_at": "2022-12-23T16:05:25.177787+00:00",
      "disabled": false,
      "last_test_timestamp": "2022-12-23T16:05:25.206745+00:00",
      "last_test_succeeded": true,
      "saas_config": null,
      "secrets": null,
      "authorized": false,
      "enabled_actions": null
    },
    {
      "name": "s3_connector_14",
      "key": "s3_connector_14",
      "description": "S3 connector 14",
      "connection_type": "s3",
      "access": "write",
      "created_at": "2022-12-23T16:06:25.163340+00:00",
      "updated_at": "2022-12-23T16:06:25.177787+00:00",
      "disabled": false,
      "last_test_timestamp": "2022-12-23T16:06:25.206745+00:00",
      "last_test_succeeded": true,
      "saas_config": null,
      "secrets": null,
      "authorized": false,
      "enabled_actions": null
    },
    {
      "name": "bigquery_connector_14",
      "key": "bigquery_connector_14",
      "description": "BigQuery connector 14",
      "connection_type": "bigquery",
      "access": "write",
      "created_at": "2022-12-23T16:07:25.163340+00:00",
      "updated_at": "2022-12-23T16:07:25.177787+00:00",
      "disabled": false,
      "last_test_timestamp": "2022-12-23T16:07:25.206745+00:00",
      "last_test_succeeded": true,
      "saas_config": null,
      "secrets": null,
      "authorized": false,
      "enabled_actions": null
    },
    {
      "name": "snowflake_connector_15",
      "key": "snowflake_connector_15",
      "description": "Snowflake connector 15",
      "connection_type": "snowflake",
      "access": "write",
      "created_at": "2022-12-23T16:08:25.163340+00:00",
      "updated_at": "2022-12-23T16:08:25.177787+00:00",
      "disabled": false,
      "last_test_timestamp": "2022-12-23T16:08:25.206745+00:00",
      "last_test_succeeded": true,
      "saas_config": null,
      "secrets": null,
      "authorized": false,
      "enabled_actions": null
    },
    {
      "name": "postgres_connector_15",
      "key": "postgres_connector_15",
      "description": "PostgreSQL connector 15",
      "connection_type": "postgres",
      "access": "write",
      "created_at": "2022-12-23T16:09:25.062083+00:00",
      "updated_at": "2022-12-23T16:09:25.087398+00:00",
      "disabled": false,
      "last_test_timestamp": "2022-12-23T16:09:25.098056+00:00",
      "last_test_succeeded": true,
      "saas_config": null,
      "secrets": null,
      "authorized": false,
      "enabled_actions": null
    },
    {
      "name": "mysql_connector_15",
      "key": "mysql_connector_15",
      "description": "MySQL connector 15",
      "connection_type": "mysql",
      "access": "write",
      "created_at": "2022-12-23T16:10:25.163340+00:00",
      "updated_at": "2022-12-23T16:10:25.177787+00:00",
      "disabled": false,
      "last_test_timestamp": "2022-12-23T16:10:25.206745+00:00",
      "last_test_succeeded": true,
      "saas_config": null,
      "secrets": null,
      "authorized": false,
      "enabled_actions": null
    },
    {
      "name": "s3_connector_15",
      "key": "s3_connector_15",
      "description": "S3 connector 15",
      "connection_type": "s3",
      "access": "write",
      "created_at": "2022-12-23T16:11:25.163340+00:00",
      "updated_at": "2022-12-23T16:11:25.177787+00:00",
      "disabled": false,
      "last_test_timestamp": "2022-12-23T16:11:25.206745+00:00",
      "last_test_succeeded": true,
      "saas_config": null,
      "secrets": null,
      "authorized": false,
      "enabled_actions": null
    },
    {
      "name": "bigquery_connector_15",
      "key": "bigquery_connector_15",
      "description": "BigQuery connector 15",
      "connection_type": "bigquery",
      "access": "write",
      "created_at": "2022-12-23T16:12:25.163340+00:00",
      "updated_at": "2022-12-23T16:12:25.177787+00:00",
      "disabled": false,
      "last_test_timestamp": "2022-12-23T16:12:25.206745+00:00",
      "last_test_succeeded": true,
      "saas_config": null,
      "secrets": null,
      "authorized": false,
      "enabled_actions": null
    },
    {
      "name": "snowflake_connector_16",
      "key": "snowflake_connector_16",
      "description": "Snowflake connector 16",
      "connection_type": "snowflake",
      "access": "write",
      "created_at": "2022-12-23T16:13:25.163340+00:00",
      "updated_at": "2022-12-23T16:13:25.177787+00:00",
      "disabled": false,
      "last_test_timestamp": "2022-12-23T16:13:25.206745+00:00",
      "last_test_succeeded": true,
      "saas_config": null,
      "secrets": null,
      "authorized": false,
      "enabled_actions": null
    },
    {
      "name": "postgres_connector_16",
      "key": "postgres_connector_16",
      "description": "PostgreSQL connector 16",
      "connection_type": "postgres",
      "access": "write",
      "created_at": "2022-12-23T16:14:25.062083+00:00",
      "updated_at": "2022-12-23T16:14:25.087398+00:00",
      "disabled": false,
      "last_test_timestamp": "2022-12-23T16:14:25.098056+00:00",
      "last_test_succeeded": true,
      "saas_config": null,
      "secrets": null,
      "authorized": false,
      "enabled_actions": null
    },
    {
      "name": "mysql_connector_16",
      "key": "mysql_connector_16",
      "description": "MySQL connector 16",
      "connection_type": "mysql",
      "access": "write",
      "created_at": "2022-12-23T16:15:25.163340+00:00",
      "updated_at": "2022-12-23T16:15:25.177787+00:00",
      "disabled": false,
      "last_test_timestamp": "2022-12-23T16:15:25.206745+00:00",
      "last_test_succeeded": true,
      "saas_config": null,
      "secrets": null,
      "authorized": false,
      "enabled_actions": null
    },
    {
      "name": "s3_connector_16",
      "key": "s3_connector_16",
      "description": "S3 connector 16",
      "connection_type": "s3",
      "access": "write",
      "created_at": "2022-12-23T16:16:25.163340+00:00",
      "updated_at": "2022-12-23T16:16:25.177787+00:00",
      "disabled": false,
      "last_test_timestamp": "2022-12-23T16:16:25.206745+00:00",
      "last_test_succeeded": true,
      "saas_config": null,
      "secrets": null,
      "authorized": false,
      "enabled_actions": null
    },
    {
      "name": "bigquery_connector_16",
      "key": "bigquery_connector_16",
      "description": "BigQuery connector 16",
      "connection_type": "bigquery",
      "access": "write",
      "created_at": "2022-12-23T16:17:25.163340+00:00",
      "updated_at": "2022-12-23T16:17:25.177787+00:00",
      "disabled": false,
      "last_test_timestamp": "2022-12-23T16:17:25.206745+00:00",
      "last_test_succeeded": true,
      "saas_config": null,
      "secrets": null,
      "authorized": false,
      "enabled_actions": null
    }
  ],
  "total": 80,
  "page": 2,
  "size": 30,
  "pages": 2
}
