{
  "items": [
    {
      "name": "snowflake_connector_1",
      "key": "snowflake_connector_1",
      "description": "Snowflake connector 1",
      "connection_type": "snowflake",
      "access": "write",
      "created_at": "2022-12-23T15:03:25.163340+00:00",
      "updated_at": "2022-12-23T15:03:25.177787+00:00",
      "disabled": false,
      "last_test_timestamp": "2022-12-23T15:03:25.206745+00:00",
      "last_test_succeeded": true,
      "saas_config": null,
      "secrets": null,
      "authorized": false,
      "enabled_actions": null
    },
    {
      "name": "postgres_connector_1",
      "key": "postgres_connector_1",
      "description": "PostgreSQL connector 1",
      "connection_type": "postgres",
      "access": "write",
      "created_at": "2022-12-23T15:03:25.062083+00:00",
      "updated_at": "2022-12-23T15:03:25.087398+00:00",
      "disabled": false,
      "last_test_timestamp": "2022-12-23T15:03:25.098056+00:00",
      "last_test_succeeded": true,
      "saas_config": null,
      "secrets": null,
      "authorized": false,
      "enabled_actions": null
    },
    {
      "name": "mysql_connector_1",
      "key": "mysql_connector_1",
      "description": "MySQL connector 1",
      "connection_type": "mysql",
      "access": "write",
      "created_at": "2022-12-23T15:04:25.163340+00:00",
      "updated_at": "2022-12-23T15:04:25.177787+00:00",
      "disabled": false,
      "last_test_timestamp": "2022-12-23T15:04:25.206745+00:00",
      "last_test_succeeded": true,
      "saas_config": null,
      "secrets": null,
      "authorized": false,
      "enabled_actions": null
    },
    {
      "name": "s3_connector_1",
      "key": "s3_connector_1",
      "description": "S3 connector 1",
      "connection_type": "s3",
      "access": "write",
      "created_at": "2022-12-23T15:05:25.163340+00:00",
      "updated_at": "2022-12-23T15:05:25.177787+00:00",
      "disabled": false,
      "last_test_timestamp": "2022-12-23T15:05:25.206745+00:00",
      "last_test_succeeded": true,
      "saas_config": null,
      "secrets": null,
      "authorized": false,
      "enabled_actions": null
    },
    {
      "name": "bigquery_connector_1",
      "key": "bigquery_connector_1",
      "description": "BigQuery connector 1",
      "connection_type": "bigquery",
      "access": "write",
      "created_at": "2022-12-23T15:06:25.163340+00:00",
      "updated_at": "2022-12-23T15:06:25.177787+00:00",
      "disabled": false,
      "last_test_timestamp": "2022-12-23T15:06:25.206745+00:00",
      "last_test_succeeded": true,
      "saas_config": null,
      "secrets": null,
      "authorized": false,
      "enabled_actions": null
    },
    {
      "name": "snowflake_connector_2",
      "key": "snowflake_connector_2",
      "description": "Snowflake connector 2",
      "connection_type": "snowflake",
      "access": "write",
      "created_at": "2022-12-23T15:07:25.163340+00:00",
      "updated_at": "2022-12-23T15:07:25.177787+00:00",
      "disabled": false,
      "last_test_timestamp": "2022-12-23T15:07:25.206745+00:00",
      "last_test_succeeded": true,
      "saas_config": null,
      "secrets": null,
      "authorized": false,
      "enabled_actions": null
    },
    {
      "name": "postgres_connector_2",
      "key": "postgres_connector_2",
      "description": "PostgreSQL connector 2",
      "connection_type": "postgres",
      "access": "write",
      "created_at": "2022-12-23T15:08:25.062083+00:00",
      "updated_at": "2022-12-23T15:08:25.087398+00:00",
      "disabled": false,
      "last_test_timestamp": "2022-12-23T15:08:25.098056+00:00",
      "last_test_succeeded": true,
      "saas_config": null,
      "secrets": null,
      "authorized": false,
      "enabled_actions": null
    },
    {
      "name": "mysql_connector_2",
      "key": "mysql_connector_2",
      "description": "MySQL connector 2",
      "connection_type": "mysql",
      "access": "write",
      "created_at": "2022-12-23T15:09:25.163340+00:00",
      "updated_at": "2022-12-23T15:09:25.177787+00:00",
      "disabled": false,
      "last_test_timestamp": "2022-12-23T15:09:25.206745+00:00",
      "last_test_succeeded": true,
      "saas_config": null,
      "secrets": null,
      "authorized": false,
      "enabled_actions": null
    },
    {
      "name": "s3_connector_2",
      "key": "s3_connector_2",
      "description": "S3 connector 2",
      "connection_type": "s3",
      "access": "write",
      "created_at": "2022-12-23T15:10:25.163340+00:00",
      "updated_at": "2022-12-23T15:10:25.177787+00:00",
      "disabled": false,
      "last_test_timestamp": "2022-12-23T15:10:25.206745+00:00",
      "last_test_succeeded": true,
      "saas_config": null,
      "secrets": null,
      "authorized": false,
      "enabled_actions": null
    },
    {
      "name": "bigquery_connector_2",
      "key": "bigquery_connector_2",
      "description": "BigQuery connector 2",
      "connection_type": "bigquery",
      "access": "write",
      "created_at": "2022-12-23T15:11:25.163340+00:00",
      "updated_at": "2022-12-23T15:11:25.177787+00:00",
      "disabled": false,
      "last_test_timestamp": "2022-12-23T15:11:25.206745+00:00",
      "last_test_succeeded": true,
      "saas_config": null,
      "secrets": null,
      "authorized": false,
      "enabled_actions": null
    },
    {
      "name": "snowflake_connector_3",
      "key": "snowflake_connector_3",
      "description": "Snowflake connector 3",
      "connection_type": "snowflake",
      "access": "write",
      "created_at": "2022-12-23T15:12:25.163340+00:00",
      "updated_at": "2022-12-23T15:12:25.177787+00:00",
      "disabled": false,
      "last_test_timestamp": "2022-12-23T15:12:25.206745+00:00",
      "last_test_succeeded": true,
      "saas_config": null,
      "secrets": null,
      "authorized": false,
      "enabled_actions": null
    },
    {
      "name": "postgres_connector_3",
      "key": "postgres_connector_3",
      "description": "PostgreSQL connector 3",
      "connection_type": "postgres",
      "access": "write",
      "created_at": "2022-12-23T15:13:25.062083+00:00",
      "updated_at": "2022-12-23T15:13:25.087398+00:00",
      "disabled": false,
      "last_test_timestamp": "2022-12-23T15:13:25.098056+00:00",
      "last_test_succeeded": true,
      "saas_config": null,
      "secrets": null,
      "authorized": false,
      "enabled_actions": null
    },
    {
      "name": "mysql_connector_3",
      "key": "mysql_connector_3",
      "description": "MySQL connector 3",
      "connection_type": "mysql",
      "access": "write",
      "created_at": "2022-12-23T15:14:25.163340+00:00",
      "updated_at": "2022-12-23T15:14:25.177787+00:00",
      "disabled": false,
      "last_test_timestamp": "2022-12-23T15:14:25.206745+00:00",
      "last_test_succeeded": true,
      "saas_config": null,
      "secrets": null,
      "authorized": false,
      "enabled_actions": null
    },
    {
      "name": "s3_connector_3",
      "key": "s3_connector_3",
      "description": "S3 connector 3",
      "connection_type": "s3",
      "access": "write",
      "created_at": "2022-12-23T15:15:25.163340+00:00",
      "updated_at": "2022-12-23T15:15:25.177787+00:00",
      "disabled": false,
      "last_test_timestamp": "2022-12-23T15:15:25.206745+00:00",
      "last_test_succeeded": true,
      "saas_config": null,
      "secrets": null,
      "authorized": false,
      "enabled_actions": null
    },
    {
      "name": "bigquery_connector_3",
      "key": "bigquery_connector_3",
      "description": "BigQuery connector 3",
      "connection_type": "bigquery",
      "access": "write",
      "created_at": "2022-12-23T15:16:25.163340+00:00",
      "updated_at": "2022-12-23T15:16:25.177787+00:00",
      "disabled": false,
      "last_test_timestamp": "2022-12-23T15:16:25.206745+00:00",
      "last_test_succeeded": true,
      "saas_config": null,
      "secrets": null,
      "authorized": false,
      "enabled_actions": null
    },
    {
      "name": "snowflake_connector_4",
      "key": "snowflake_connector_4",
      "description": "Snowflake connector 4",
      "connection_type": "snowflake",
      "access": "write",
      "created_at": "2022-12-23T15:17:25.163340+00:00",
      "updated_at": "2022-12-23T15:17:25.177787+00:00",
      "disabled": false,
      "last_test_timestamp": "2022-12-23T15:17:25.206745+00:00",
      "last_test_succeeded": true,
      "saas_config": null,
      "secrets": null,
      "authorized": false,
      "enabled_actions": null
    },
    {
      "name": "postgres_connector_4",
      "key": "postgres_connector_4",
      "description": "PostgreSQL connector 4",
      "connection_type": "postgres",
      "access": "write",
      "created_at": "2022-12-23T15:18:25.062083+00:00",
      "updated_at": "2022-12-23T15:18:25.087398+00:00",
      "disabled": false,
      "last_test_timestamp": "2022-12-23T15:18:25.098056+00:00",
      "last_test_succeeded": true,
      "saas_config": null,
      "secrets": null,
      "authorized": false,
      "enabled_actions": null
    },
    {
      "name": "mysql_connector_4",
      "key": "mysql_connector_4",
      "description": "MySQL connector 4",
      "connection_type": "mysql",
      "access": "write",
      "created_at": "2022-12-23T15:19:25.163340+00:00",
      "updated_at": "2022-12-23T15:19:25.177787+00:00",
      "disabled": false,
      "last_test_timestamp": "2022-12-23T15:19:25.206745+00:00",
      "last_test_succeeded": true,
      "saas_config": null,
      "secrets": null,
      "authorized": false,
      "enabled_actions": null
    },
    {
      "name": "s3_connector_4",
      "key": "s3_connector_4",
      "description": "S3 connector 4",
      "connection_type": "s3",
      "access": "write",
      "created_at": "2022-12-23T15:20:25.163340+00:00",
      "updated_at": "2022-12-23T15:20:25.177787+00:00",
      "disabled": false,
      "last_test_timestamp": "2022-12-23T15:20:25.206745+00:00",
      "last_test_succeeded": true,
      "saas_config": null,
      "secrets": null,
      "authorized": false,
      "enabled_actions": null
    },
    {
      "name": "bigquery_connector_4",
      "key": "bigquery_connector_4",
      "description": "BigQuery connector 4",
      "connection_type": "bigquery",
      "access": "write",
      "created_at": "2022-12-23T15:21:25.163340+00:00",
      "updated_at": "2022-12-23T15:21:25.177787+00:00",
      "disabled": false,
      "last_test_timestamp": "2022-12-23T15:21:25.206745+00:00",
      "last_test_succeeded": true,
      "saas_config": null,
      "secrets": null,
      "authorized": false,
      "enabled_actions": null
    },
    {
      "name": "snowflake_connector_5",
      "key": "snowflake_connector_5",
      "description": "Snowflake connector 5",
      "connection_type": "snowflake",
      "access": "write",
      "created_at": "2022-12-23T15:22:25.163340+00:00",
      "updated_at": "2022-12-23T15:22:25.177787+00:00",
      "disabled": false,
      "last_test_timestamp": "2022-12-23T15:22:25.206745+00:00",
      "last_test_succeeded": true,
      "saas_config": null,
      "secrets": null,
      "authorized": false,
      "enabled_actions": null
    },
    {
      "name": "postgres_connector_5",
      "key": "postgres_connector_5",
      "description": "PostgreSQL connector 5",
      "connection_type": "postgres",
      "access": "write",
      "created_at": "2022-12-23T15:23:25.062083+00:00",
      "updated_at": "2022-12-23T15:23:25.087398+00:00",
      "disabled": false,
      "last_test_timestamp": "2022-12-23T15:23:25.098056+00:00",
      "last_test_succeeded": true,
      "saas_config": null,
      "secrets": null,
      "authorized": false,
      "enabled_actions": null
    },
    {
      "name": "mysql_connector_5",
      "key": "mysql_connector_5",
      "description": "MySQL connector 5",
      "connection_type": "mysql",
      "access": "write",
      "created_at": "2022-12-23T15:24:25.163340+00:00",
      "updated_at": "2022-12-23T15:24:25.177787+00:00",
      "disabled": false,
      "last_test_timestamp": "2022-12-23T15:24:25.206745+00:00",
      "last_test_succeeded": true,
      "saas_config": null,
      "secrets": null,
      "authorized": false,
      "enabled_actions": null
    },
    {
      "name": "s3_connector_5",
      "key": "s3_connector_5",
      "description": "S3 connector 5",
      "connection_type": "s3",
      "access": "write",
      "created_at": "2022-12-23T15:25:25.163340+00:00",
      "updated_at": "2022-12-23T15:25:25.177787+00:00",
      "disabled": false,
      "last_test_timestamp": "2022-12-23T15:25:25.206745+00:00",
      "last_test_succeeded": true,
      "saas_config": null,
      "secrets": null,
      "authorized": false,
      "enabled_actions": null
    },
    {
      "name": "bigquery_connector_5",
      "key": "bigquery_connector_5",
      "description": "BigQuery connector 5",
      "connection_type": "bigquery",
      "access": "write",
      "created_at": "2022-12-23T15:26:25.163340+00:00",
      "updated_at": "2022-12-23T15:26:25.177787+00:00",
      "disabled": false,
      "last_test_timestamp": "2022-12-23T15:26:25.206745+00:00",
      "last_test_succeeded": true,
      "saas_config": null,
      "secrets": null,
      "authorized": false,
      "enabled_actions": null
    },
    {
      "name": "snowflake_connector_6",
      "key": "snowflake_connector_6",
      "description": "Snowflake connector 6",
      "connection_type": "snowflake",
      "access": "write",
      "created_at": "2022-12-23T15:27:25.163340+00:00",
      "updated_at": "2022-12-23T15:27:25.177787+00:00",
      "disabled": false,
      "last_test_timestamp": "2022-12-23T15:27:25.206745+00:00",
      "last_test_succeeded": true,
      "saas_config": null,
      "secrets": null,
      "authorized": false,
      "enabled_actions": null
    },
    {
      "name": "postgres_connector_6",
      "key": "postgres_connector_6",
      "description": "PostgreSQL connector 6",
      "connection_type": "postgres",
      "access": "write",
      "created_at": "2022-12-23T15:28:25.062083+00:00",
      "updated_at": "2022-12-23T15:28:25.087398+00:00",
      "disabled": false,
      "last_test_timestamp": "2022-12-23T15:28:25.098056+00:00",
      "last_test_succeeded": true,
      "saas_config": null,
      "secrets": null,
      "authorized": false,
      "enabled_actions": null
    },
    {
      "name": "mysql_connector_6",
      "key": "mysql_connector_6",
      "description": "MySQL connector 6",
      "connection_type": "mysql",
      "access": "write",
      "created_at": "2022-12-23T15:29:25.163340+00:00",
      "updated_at": "2022-12-23T15:29:25.177787+00:00",
      "disabled": false,
      "last_test_timestamp": "2022-12-23T15:29:25.206745+00:00",
      "last_test_succeeded": true,
      "saas_config": null,
      "secrets": null,
      "authorized": false,
      "enabled_actions": null
    },
    {
      "name": "s3_connector_6",
      "key": "s3_connector_6",
      "description": "S3 connector 6",
      "connection_type": "s3",
      "access": "write",
      "created_at": "2022-12-23T15:30:25.163340+00:00",
      "updated_at": "2022-12-23T15:30:25.177787+00:00",
      "disabled": false,
      "last_test_timestamp": "2022-12-23T15:30:25.206745+00:00",
      "last_test_succeeded": true,
      "saas_config": null,
      "secrets": null,
      "authorized": false,
      "enabled_actions": null
    },
    {
      "name": "bigquery_connector_6",
      "key": "bigquery_connector_6",
      "description": "BigQuery connector 6",
      "connection_type": "bigquery",
      "access": "write",
      "created_at": "2022-12-23T15:31:25.163340+00:00",
      "updated_at": "2022-12-23T15:31:25.177787+00:00",
      "disabled": false,
      "last_test_timestamp": "2022-12-23T15:31:25.206745+00:00",
      "last_test_succeeded": true,
      "saas_config": null,
      "secrets": null,
      "authorized": false,
      "enabled_actions": null
    },
    {
      "name": "snowflake_connector_7",
      "key": "snowflake_connector_7",
      "description": "Snowflake connector 7",
      "connection_type": "snowflake",
      "access": "write",
      "created_at": "2022-12-23T15:32:25.163340+00:00",
      "updated_at": "2022-12-23T15:32:25.177787+00:00",
      "disabled": false,
      "last_test_timestamp": "2022-12-23T15:32:25.206745+00:00",
      "last_test_succeeded": true,
      "saas_config": null,
      "secrets": null,
      "authorized": false,
      "enabled_actions": null
    },
    {
      "name": "postgres_connector_7",
      "key": "postgres_connector_7",
      "description": "PostgreSQL connector 7",
      "connection_type": "postgres",
      "access": "write",
      "created_at": "2022-12-23T15:33:25.062083+00:00",
      "updated_at": "2022-12-23T15:33:25.087398+00:00",
      "disabled": false,
      "last_test_timestamp": "2022-12-23T15:33:25.098056+00:00",
      "last_test_succeeded": true,
      "saas_config": null,
      "secrets": null,
      "authorized": false,
      "enabled_actions": null
    },
    {
      "name": "mysql_connector_7",
      "key": "mysql_connector_7",
      "description": "MySQL connector 7",
      "connection_type": "mysql",
      "access": "write",
      "created_at": "2022-12-23T15:34:25.163340+00:00",
      "updated_at": "2022-12-23T15:34:25.177787+00:00",
      "disabled": false,
      "last_test_timestamp": "2022-12-23T15:34:25.206745+00:00",
      "last_test_succeeded": true,
      "saas_config": null,
      "secrets": null,
      "authorized": false,
      "enabled_actions": null
    },
    {
      "name": "s3_connector_7",
      "key": "s3_connector_7",
      "description": "S3 connector 7",
      "connection_type": "s3",
      "access": "write",
      "created_at": "2022-12-23T15:35:25.163340+00:00",
      "updated_at": "2022-12-23T15:35:25.177787+00:00",
      "disabled": false,
      "last_test_timestamp": "2022-12-23T15:35:25.206745+00:00",
      "last_test_succeeded": true,
      "saas_config": null,
      "secrets": null,
      "authorized": false,
      "enabled_actions": null
    },
    {
      "name": "bigquery_connector_7",
      "key": "bigquery_connector_7",
      "description": "BigQuery connector 7",
      "connection_type": "bigquery",
      "access": "write",
      "created_at": "2022-12-23T15:36:25.163340+00:00",
      "updated_at": "2022-12-23T15:36:25.177787+00:00",
      "disabled": false,
      "last_test_timestamp": "2022-12-23T15:36:25.206745+00:00",
      "last_test_succeeded": true,
      "saas_config": null,
      "secrets": null,
      "authorized": false,
      "enabled_actions": null
    },
    {
      "name": "snowflake_connector_8",
      "key": "snowflake_connector_8",
      "description": "Snowflake connector 8",
      "connection_type": "snowflake",
      "access": "write",
      "created_at": "2022-12-23T15:37:25.163340+00:00",
      "updated_at": "2022-12-23T15:37:25.177787+00:00",
      "disabled": false,
      "last_test_timestamp": "2022-12-23T15:37:25.206745+00:00",
      "last_test_succeeded": true,
      "saas_config": null,
      "secrets": null,
      "authorized": false,
      "enabled_actions": null
    },
    {
      "name": "postgres_connector_8",
      "key": "postgres_connector_8",
      "description": "PostgreSQL connector 8",
      "connection_type": "postgres",
      "access": "write",
      "created_at": "2022-12-23T15:38:25.062083+00:00",
      "updated_at": "2022-12-23T15:38:25.087398+00:00",
      "disabled": false,
      "last_test_timestamp": "2022-12-23T15:38:25.098056+00:00",
      "last_test_succeeded": true,
      "saas_config": null,
      "secrets": null,
      "authorized": false,
      "enabled_actions": null
    },
    {
      "name": "mysql_connector_8",
      "key": "mysql_connector_8",
      "description": "MySQL connector 8",
      "connection_type": "mysql",
      "access": "write",
      "created_at": "2022-12-23T15:39:25.163340+00:00",
      "updated_at": "2022-12-23T15:39:25.177787+00:00",
      "disabled": false,
      "last_test_timestamp": "2022-12-23T15:39:25.206745+00:00",
      "last_test_succeeded": true,
      "saas_config": null,
      "secrets": null,
      "authorized": false,
      "enabled_actions": null
    },
    {
      "name": "s3_connector_8",
      "key": "s3_connector_8",
      "description": "S3 connector 8",
      "connection_type": "s3",
      "access": "write",
      "created_at": "2022-12-23T15:40:25.163340+00:00",
      "updated_at": "2022-12-23T15:40:25.177787+00:00",
      "disabled": false,
      "last_test_timestamp": "2022-12-23T15:40:25.206745+00:00",
      "last_test_succeeded": true,
      "saas_config": null,
      "secrets": null,
      "authorized": false,
      "enabled_actions": null
    },
    {
      "name": "bigquery_connector_8",
      "key": "bigquery_connector_8",
      "description": "BigQuery connector 8",
      "connection_type": "bigquery",
      "access": "write",
      "created_at": "2022-12-23T15:41:25.163340+00:00",
      "updated_at": "2022-12-23T15:41:25.177787+00:00",
      "disabled": false,
      "last_test_timestamp": "2022-12-23T15:41:25.206745+00:00",
      "last_test_succeeded": true,
      "saas_config": null,
      "secrets": null,
      "authorized": false,
      "enabled_actions": null
    },
    {
      "name": "snowflake_connector_9",
      "key": "snowflake_connector_9",
      "description": "Snowflake connector 9",
      "connection_type": "snowflake",
      "access": "write",
      "created_at": "2022-12-23T15:42:25.163340+00:00",
      "updated_at": "2022-12-23T15:42:25.177787+00:00",
      "disabled": false,
      "last_test_timestamp": "2022-12-23T15:42:25.206745+00:00",
      "last_test_succeeded": true,
      "saas_config": null,
      "secrets": null,
      "authorized": false,
      "enabled_actions": null
    },
    {
      "name": "postgres_connector_9",
      "key": "postgres_connector_9",
      "description": "PostgreSQL connector 9",
      "connection_type": "postgres",
      "access": "write",
      "created_at": "2022-12-23T15:43:25.062083+00:00",
      "updated_at": "2022-12-23T15:43:25.087398+00:00",
      "disabled": false,
      "last_test_timestamp": "2022-12-23T15:43:25.098056+00:00",
      "last_test_succeeded": true,
      "saas_config": null,
      "secrets": null,
      "authorized": false,
      "enabled_actions": null
    },
    {
      "name": "mysql_connector_9",
      "key": "mysql_connector_9",
      "description": "MySQL connector 9",
      "connection_type": "mysql",
      "access": "write",
      "created_at": "2022-12-23T15:44:25.163340+00:00",
      "updated_at": "2022-12-23T15:44:25.177787+00:00",
      "disabled": false,
      "last_test_timestamp": "2022-12-23T15:44:25.206745+00:00",
      "last_test_succeeded": true,
      "saas_config": null,
      "secrets": null,
      "authorized": false,
      "enabled_actions": null
    },
    {
      "name": "s3_connector_9",
      "key": "s3_connector_9",
      "description": "S3 connector 9",
      "connection_type": "s3",
      "access": "write",
      "created_at": "2022-12-23T15:45:25.163340+00:00",
      "updated_at": "2022-12-23T15:45:25.177787+00:00",
      "disabled": false,
      "last_test_timestamp": "2022-12-23T15:45:25.206745+00:00",
      "last_test_succeeded": true,
      "saas_config": null,
      "secrets": null,
      "authorized": false,
      "enabled_actions": null
    },
    {
      "name": "bigquery_connector_9",
      "key": "bigquery_connector_9",
      "description": "BigQuery connector 9",
      "connection_type": "bigquery",
      "access": "write",
      "created_at": "2022-12-23T15:46:25.163340+00:00",
      "updated_at": "2022-12-23T15:46:25.177787+00:00",
      "disabled": false,
      "last_test_timestamp": "2022-12-23T15:46:25.206745+00:00",
      "last_test_succeeded": true,
      "saas_config": null,
      "secrets": null,
      "authorized": false,
      "enabled_actions": null
    },
    {
      "name": "snowflake_connector_10",
      "key": "snowflake_connector_10",
      "description": "Snowflake connector 10",
      "connection_type": "snowflake",
      "access": "write",
      "created_at": "2022-12-23T15:47:25.163340+00:00",
      "updated_at": "2022-12-23T15:47:25.177787+00:00",
      "disabled": false,
      "last_test_timestamp": "2022-12-23T15:47:25.206745+00:00",
      "last_test_succeeded": true,
      "saas_config": null,
      "secrets": null,
      "authorized": false,
      "enabled_actions": null
    },
    {
      "name": "postgres_connector_10",
      "key": "postgres_connector_10",
      "description": "PostgreSQL connector 10",
      "connection_type": "postgres",
      "access": "write",
      "created_at": "2022-12-23T15:48:25.062083+00:00",
      "updated_at": "2022-12-23T15:48:25.087398+00:00",
      "disabled": false,
      "last_test_timestamp": "2022-12-23T15:48:25.098056+00:00",
      "last_test_succeeded": true,
      "saas_config": null,
      "secrets": null,
      "authorized": false,
      "enabled_actions": null
    },
    {
      "name": "mysql_connector_10",
      "key": "mysql_connector_10",
      "description": "MySQL connector 10",
      "connection_type": "mysql",
      "access": "write",
      "created_at": "2022-12-23T15:49:25.163340+00:00",
      "updated_at": "2022-12-23T15:49:25.177787+00:00",
      "disabled": false,
      "last_test_timestamp": "2022-12-23T15:49:25.206745+00:00",
      "last_test_succeeded": true,
      "saas_config": null,
      "secrets": null,
      "authorized": false,
      "enabled_actions": null
    },
    {
      "name": "s3_connector_10",
      "key": "s3_connector_10",
      "description": "S3 connector 10",
      "connection_type": "s3",
      "access": "write",
      "created_at": "2022-12-23T15:50:25.163340+00:00",
      "updated_at": "2022-12-23T15:50:25.177787+00:00",
      "disabled": false,
      "last_test_timestamp": "2022-12-23T15:50:25.206745+00:00",
      "last_test_succeeded": true,
      "saas_config": null,
      "secrets": null,
      "authorized": false,
      "enabled_actions": null
    },
    {
      "name": "bigquery_connector_10",
      "key": "bigquery_connector_10",
      "description": "BigQuery connector 10",
      "connection_type": "bigquery",
      "access": "write",
      "created_at": "2022-12-23T15:51:25.163340+00:00",
      "updated_at": "2022-12-23T15:51:25.177787+00:00",
      "disabled": false,
      "last_test_timestamp": "2022-12-23T15:51:25.206745+00:00",
      "last_test_succeeded": true,
      "saas_config": null,
      "secrets": null,
      "authorized": false,
      "enabled_actions": null
    }
  ],
  "total": 80,
  "page": 1,
  "size": 50,
  "pages": 2
}
