{
  "items": [
    "prj-bigquery-000001",
    "prj-bqextract-000002",
    "prj-bigquery-000003",
    "prj-bigquery-000004",
    "prj-bigquery-000005",
    "prj-bigquery-000006",
    "prj-bigquery-000007",
    "prj-bigquery-000008",
    "prj-bigquery-000009",
    "prj-bigquery-000010",
    "prj-bigquery-000011",
    "prj-bigquery-000012",
    "prj-bigquery-000013",
    "prj-bigquery-000014",
    "prj-bigquery-000015",
    "prj-bigquery-000016",
    "prj-bigquery-000017",
    "prj-bigquery-000018",
    "prj-bigquery-000019",
    "prj-bigquery-000020",
    "prj-bigquery-000021",
    "prj-bigquery-000022",
    "prj-bigquery-000023",
    "prj-bigquery-000024",
    "prj-bigquery-000025"
  ],
  "total": 27,
  "page": 1,
  "size": 25,
  "pages": 2
}
