{
  "items": [
    "prj-bigquery-000026",
    "prj-bqextract-000027",
    "prj-bigquery-000028"
  ],
  "total": 27,
  "page": 2,
  "size": 25,
  "pages": 2
}
